Advertising Budget Optimization: An application of Marketing Mix Modelling and Linear Programming
…
solution <- lp("max", objective, constraints, direction, restrictions)

dfoptim$solution <- solution$solution

The total number of Sales obtained by the algorithm is 33582 and it is a direct result of the constraints and the inputs.

The following table shows 25 random observations from the final dataset. The variable “solution” contains the number of commercials that should be scheduled in this slot. For comparison, notice that the variable “n” contains the number of commercials scheduled in the same slot in the previous, sub-optimal campaign.

This is essentially a scheduling order that can be sent to the media agency to enforce.

dfoptim %>% 
ungroup() %>%
sample_n(25) 

## # A tibble: 25 x 8
##    Channel Length  Wday  Hour        sf     n     p solution
##      <int>  <int> <dbl> <int>     <dbl> <int> <dbl>    <dbl>
##  1      10     15     1    16 13.366078     2   879        8
##  2       4     30     2    21 17.385558     1  2704        0
##  3       4     30     2    20 16.678637     2  1352        4
##  4       4     30     2    15  7.901645     2  1352        0
##  5       2     15     7    12 13.239773     1  2704        0
##  6       4     15     7     1 26.502088     4  2197        8
##  7      11     15     1    22 77.145708     1 32921        0
##  8      10     30     4    21 25.555827     1 27817        0
##  9       1     30     3    21 11.103442     1  1791        0
## 10      13     15     1    21 46.017580     1 13047        0
## # ... with 15 more rows
