Exploring the drivers of Customer Satisfaction Indices
…
cor(hpgdp$cycle,hpcsi$cycle)

## [1] -0.1634065

The Survey

Apparently, there are many governments that are openning their data to the public driven by the need to be “open”. A quick google search for “Customer Satisfaction Dataset” gives several websites with datasets. We will use this data to examine the hypothesis at the cross-sectional level, instead of the time dimension.

I have found this data. The data and questionnaire can be found at https://www.europeandataportal.eu/data/en/dataset/civil-service-customer-satisfaction-survey-2015/resource/eec6afcd-88d2-460d-960e-ad68c621f4d4?inner_span=True

library(readxl)
library(tidyverse)
read_excel("CSC Survey.xlsx", sheet = 1)

## # A tibble: 2,025 x 251
##     iobs intno assno   age    c2    c3    c4    c5    c6    c7   c8a   c8b
##    <dbl> <dbl> <dbl> <dbl> <dbl> <dbl> <dbl> <dbl> <dbl> <dbl> <dbl> <dbl>
##  1     1   552  2212     9     1     2     2    10     2     1     1     1
##  2     2   552  2212    12     2     2     2    10     2     1     1     1
##  3     3   552  2212     1     1     1     4    10     2     1     1     1
##  4     4   552  2212     7     2     1     2     1     2     1     2     2
##  5     5   552  2212     6     2     2     2     3     2     3     1     1
##  6     6   552  2212    11     2     1     2    10     2     1     1     1
##  7     7   552  2212    12     1     1     2    10     2     1     1     1
##  8     8   552  2212     9     2     2     2    10     2     1     2     2
##  9     9   552  2212     5     2     1     2    10     2     1     1     1
## 10    10   552  2212    12     1     2     2    10     2     1     1     3
## # ... with 2,015 more rows, and 239 more variables: c8c <dbl>, c8d <dbl>,
## #   c8e <dbl>, c8f <dbl>, c9 <dbl>, c9a <dbl>, c15 <dbl>, c16 <dbl>,
## #   c16a <dbl>, c17 <dbl>, c18 <dbl>, c19_1 <dbl>, c19_2 <dbl>,
## #   c19_3 <dbl>, c19_4 <dbl>, c19_5 <dbl>, c19_6 <dbl>, c19_7 <dbl>,
## #   c20 <dbl>, q1aa <dbl>, q1ab <dbl>, q1ac <dbl>, q1ad <dbl>, q1ae <dbl>,
## #   q1af <dbl>, q1ag <dbl>, q1ah <dbl>, q1ai <dbl>, q1aj <dbl>,
## #   q1ak <dbl>, q1al <dbl>, q1am <dbl>, q1an <dbl>, q1ao <dbl>,
## #   q1ap <dbl>, q1aq <dbl>, q1ar <dbl>, q1as <dbl>, q1at <dbl>,
## #   q1au <dbl>, q1av <dbl>, q1aw <dbl>, q1ba <dbl>, q1bb <dbl>,
…
